{
  "posts": [
    {
      "id": 1,
      "title": "json-server",
      "author": "typicode"
    }
  ],
  "comments": [
    {
      "id": 1,
      "body": "some comment",
      "postId": 1
    }
  ],
  "profile": {
    "name": "typicode"
  },
  "login" : {
      "data": {
        "id": 2,
        "token": "eyJhbGciOiJIUzI1NiIsInR5cCI6IkpXVCJ9.eyJuYW1laWQiOiIyIiwibmFtZSI6InRlc3RAZ21haWwuY29tIiwibmJmIjoxNjE4NDgxOTkzLCJleHAiOjE2MTg0ODU1OTMsImlhdCI6MTYxODQ4MTk5M30.z4Egv9qYWIm_KZsWmgOOYdKzlZrJ-8mqosm23e8pehk",
        "fullName": "string string",
        "isVerified": false,
        "roles": [
          "USER"
        ]
      },
      "isSuccess": true,
      "code": 200,
      "message": "Đăng nhập thành công."
    },

  "register" : {
    "accountId": 3,
    "isSuccess": true,
    "error": null,
    "isVerified": false
  }
}